<?xml version="1.0" encoding="utf-8"?>
<COLLADA xmlns="http://www.collada.org/2005/11/COLLADASchema" version="1.4.1" xmlns:xsi="http://www.w3.org/2001/XMLSchema-instance">
  <asset>
    <contributor>
      <author>Blender User</author>
      <authoring_tool>Blender 2.91.0 commit date:2020-11-25, commit time:08:34, hash:0f45cab862b8</authoring_tool>
    </contributor>
    <created>2021-02-08T12:51:33</created>
    <modified>2021-02-08T12:51:33</modified>
    <unit name="meter" meter="1"/>
    <up_axis>Z_UP</up_axis>
  </asset>
  <library_effects>
    <effect id="mat-effect">
      <profile_COMMON>
        <technique sid="common">
          <lambert>
            <emission>
              <color sid="emission">0 0 0 1</color>
            </emission>
            <diffuse>
              <color sid="diffuse">0.8275576 0.8275576 0.8275576 1</color>
            </diffuse>
            <index_of_refraction>
              <float sid="ior">1.45</float>
            </index_of_refraction>
          </lambert>
        </technique>
      </profile_COMMON>
    </effect>
  </library_effects>
  <library_images/>
  <library_materials>
    <material id="mat-material" name="mat">
      <instance_effect url="#mat-effect"/>
    </material>
  </library_materials>
  <library_geometries>
    <geometry id="Bronze_CHALLENGE1_Rev2_-_MAT-1-mesh" name="Bronze CHALLENGE1 Rev2 - MAT-1">
      <mesh>
        <source id="Bronze_CHALLENGE1_Rev2_-_MAT-1-mesh-positions">
          <float_array id="Bronze_CHALLENGE1_Rev2_-_MAT-1-mesh-positions-array" count="24">-1.824932 -0.8830319 0.07736438 -1.824932 0.8830317 0.07736438 -1.824932 -0.8830319 -9.65695e-5 -1.824932 0.8830317 -9.65695e-5 1.824932 -0.8830319 0.07736438 1.824932 -0.8830319 -9.65695e-5 1.824932 0.8830317 0.07736438 1.824932 0.8830317 -9.65695e-5</float_array>
          <technique_common>
            <accessor source="#Bronze_CHALLENGE1_Rev2_-_MAT-1-mesh-positions-array" count="8" stride="3">
              <param name="X" type="float"/>
              <param name="Y" type="float"/>
              <param name="Z" type="float"/>
            </accessor>
          </technique_common>
        </source>
        <source id="Bronze_CHALLENGE1_Rev2_-_MAT-1-mesh-normals">
          <float_array id="Bronze_CHALLENGE1_Rev2_-_MAT-1-mesh-normals-array" count="18">-1 0 0 0 -1 0 1 0 0 0 1 0 0 0 1 0 0 -1</float_array>
          <technique_common>
            <accessor source="#Bronze_CHALLENGE1_Rev2_-_MAT-1-mesh-normals-array" count="6" stride="3">
              <param name="X" type="float"/>
              <param name="Y" type="float"/>
              <param name="Z" type="float"/>
            </accessor>
          </technique_common>
        </source>
        <vertices id="Bronze_CHALLENGE1_Rev2_-_MAT-1-mesh-vertices">
          <input semantic="POSITION" source="#Bronze_CHALLENGE1_Rev2_-_MAT-1-mesh-positions"/>
        </vertices>
        <triangles material="mat-material" count="12">
          <input semantic="VERTEX" source="#Bronze_CHALLENGE1_Rev2_-_MAT-1-mesh-vertices" offset="0"/>
          <input semantic="NORMAL" source="#Bronze_CHALLENGE1_Rev2_-_MAT-1-mesh-normals" offset="1"/>
          <p>0 0 1 0 2 0 2 0 1 0 3 0 4 1 0 1 5 1 5 1 0 1 2 1 6 2 4 2 7 2 7 2 4 2 5 2 1 3 6 3 3 3 3 3 6 3 7 3 4 4 6 4 0 4 0 4 6 4 1 4 7 5 5 5 3 5 3 5 5 5 2 5</p>
        </triangles>
      </mesh>
    </geometry>
  </library_geometries>
  <library_visual_scenes>
    <visual_scene id="Scene" name="Scene">
      <node id="Bronze_CHALLENGE1_Rev2_-_MAT-1" name="Bronze CHALLENGE1 Rev2 - MAT-1" type="NODE">
        <matrix sid="transform">0.6471 0 0 2.32073e-7 0 -0.6471 -9.77094e-8 1.29739e-6 0 9.77094e-8 -0.6471 -6.9906e-5 0 0 0 1</matrix>
        <instance_geometry url="#Bronze_CHALLENGE1_Rev2_-_MAT-1-mesh" name="Bronze CHALLENGE1 Rev2 - MAT-1">
          <bind_material>
            <technique_common>
              <instance_material symbol="mat-material" target="#mat-material"/>
            </technique_common>
          </bind_material>
        </instance_geometry>
      </node>
    </visual_scene>
  </library_visual_scenes>
  <scene>
    <instance_visual_scene url="#Scene"/>
  </scene>
</COLLADA>